<?xml version="1.0" encoding="utf-8"?>
<!-- Generator: Adobe Illustrator 18.1.0, SVG Export Plug-In . SVG Version: 6.00 Build 0)  -->
<svg version="1.1" id="Layer_1" xmlns="http://www.w3.org/2000/svg" xmlns:xlink="http://www.w3.org/1999/xlink" x="0px" y="0px"
	 viewBox="0 0 128.1 123.2" enable-background="new 0 0 128.1 123.2" xml:space="preserve">
<path fill="#FFFFFF" d="M116.4,51.1c0.1,1.7,0.1,3.7,0.1,3.7c10.4,6.7,11.9,10.2,11.6,11.4c-0.8,3.1-6.4,0.6-14.2,4.2
	c-11.6,4.5-25.5,27-49.9,23.2c-18.2-2.8-24.2-13-43.8-18.5C5.2,72-0.1,73.6,0,72.1c0-2.2,2-8.4,11.8-17.9c0,0,0.1-2.7,0.1-3.2
	C12,22.6,37,0,64,0C94.2,0,115.1,24.2,116.4,51.1z"/>
<linearGradient id="SVGID_1_" gradientUnits="userSpaceOnUse" x1="64.1274" y1="53.7688" x2="64.1274" y2="1.1452">
	<stop  offset="0" style="stop-color:#FAA94B"/>
	<stop  offset="1" style="stop-color:#DC8127"/>
</linearGradient>
<path fill="url(#SVGID_1_)" d="M13,52.2C13,24,35.9,1.1,64.1,1.1s51.1,22.4,51.1,52c0,0-8.4-5.6-18-5.6c-7.7-0.4-12.9,4.5-12.9,4.5
	l2-4.9c0,0-7.8,4.1-13.7,5.6c-7.3,1.8-12.3,0.9-16.5,0.2c-9.4-1.7-15.1-8.5-27.5-7.3C19.6,46.5,13,52.2,13,52.2z"/>
<linearGradient id="SVGID_2_" gradientUnits="userSpaceOnUse" x1="42.3444" y1="69.2826" x2="42.3444" y2="47.5299">
	<stop  offset="0.3066" style="stop-color:#19587E"/>
	<stop  offset="1" style="stop-color:#196194"/>
</linearGradient>
<path fill="url(#SVGID_2_)" d="M1.9,69.2c0-1.1,10.8-20.6,27.3-21.6c11.8-0.7,15.6,6,31.1,8.1c12.5,1.7,22.5-4.9,22.5-4.6
	c0,0.3-10.2,14.2-27.5,15.3c-10.8,0.7-16.2-3.5-27.4-3.8C8.5,62.1,1.9,70.2,1.9,69.2z"/>
<radialGradient id="SVGID_3_" cx="79.9631" cy="62.9028" r="34.1088" gradientUnits="userSpaceOnUse">
	<stop  offset="0.3066" style="stop-color:#19587E"/>
	<stop  offset="1" style="stop-color:#196194"/>
</radialGradient>
<path fill="url(#SVGID_3_)" d="M33.6,64.9c0-0.6,20.7,8.1,36.1-0.3c10.7-5.9,16.5-14.3,26.5-14.9c13.2-0.7,30.2,13.4,30.2,14.4
	c0,0.8-14.8-5.8-24.5,0.1c-12.3,7.5-20.3,13.5-37.7,11.7C47.3,74.1,33.6,65.4,33.6,64.9z"/>
<linearGradient id="SVGID_4_" gradientUnits="userSpaceOnUse" x1="64.1324" y1="92.9172" x2="64.1324" y2="63.7617">
	<stop  offset="0" style="stop-color:#3F7650"/>
	<stop  offset="1" style="stop-color:#42A566"/>
</linearGradient>
<path fill="url(#SVGID_4_)" d="M29.7,65.5c2.4,0.6,19.3,13,39.2,12.9c22.5-0.1,26.5-11.1,39.7-14.3c6-1.5,17.8,1.8,17.8,2.4
	c0,0.9-11.2-0.8-22.2,8.7C88.2,89,78,93.9,66.7,92.7c-19.4-2-22.1-10.8-43.4-18.1c-8.6-3-21.4-2.9-21.4-3.2
	C1.9,71,16.3,62.1,29.7,65.5z"/>
<g>
	<path fill="#FFFFFF" d="M13.4,103.7c-0.3-0.4-0.8-0.7-1.3-0.9c-0.5-0.2-1.1-0.3-1.7-0.3c-0.7,0-1.2,0.1-1.8,0.4
		c-0.5,0.2-1,0.6-1.3,1c-0.4,0.4-0.7,0.9-0.8,1.4c-0.2,0.5-0.3,1.1-0.3,1.7c0,0.6,0.1,1.2,0.3,1.7c0.2,0.5,0.5,1,0.8,1.4
		c0.4,0.4,0.8,0.7,1.4,1c0.5,0.2,1.1,0.3,1.8,0.3c0.5,0,1,0,1.4-0.1c0.4-0.1,0.8-0.2,1.1-0.4v-3.1h-2.5v-1.3h4v5.4
		c-0.6,0.3-1.2,0.6-1.9,0.7c-0.7,0.2-1.4,0.3-2.3,0.3c-0.9,0-1.7-0.1-2.4-0.4c-0.7-0.3-1.4-0.7-1.9-1.2c-0.5-0.5-0.9-1.1-1.2-1.9
		c-0.3-0.7-0.4-1.5-0.4-2.4c0-0.9,0.1-1.7,0.4-2.4c0.3-0.7,0.7-1.3,1.2-1.8c0.5-0.5,1.2-0.9,1.9-1.2c0.7-0.3,1.5-0.4,2.4-0.4
		c0.9,0,1.7,0.1,2.4,0.4c0.7,0.3,1.3,0.6,1.7,1.1L13.4,103.7z"/>
	<path fill="#FFFFFF" d="M29.8,107c0,0.9-0.1,1.6-0.4,2.4c-0.3,0.7-0.7,1.3-1.2,1.9c-0.5,0.5-1.1,0.9-1.9,1.2
		c-0.7,0.3-1.5,0.4-2.4,0.4s-1.6-0.1-2.4-0.4c-0.7-0.3-1.3-0.7-1.9-1.2c-0.5-0.5-0.9-1.1-1.2-1.9c-0.3-0.7-0.4-1.5-0.4-2.4
		c0-0.9,0.1-1.7,0.4-2.4c0.3-0.7,0.7-1.3,1.2-1.8c0.5-0.5,1.1-0.9,1.9-1.2c0.7-0.3,1.5-0.4,2.4-0.4s1.6,0.1,2.4,0.4
		c0.7,0.3,1.3,0.7,1.9,1.2c0.5,0.5,0.9,1.1,1.2,1.8C29.7,105.3,29.8,106.1,29.8,107z M28.1,107c0-0.6-0.1-1.2-0.3-1.7
		c-0.2-0.5-0.5-1-0.8-1.4c-0.4-0.4-0.8-0.7-1.3-1c-0.5-0.2-1.1-0.4-1.8-0.4c-0.6,0-1.2,0.1-1.7,0.4c-0.5,0.2-1,0.6-1.3,1
		c-0.4,0.4-0.6,0.9-0.8,1.4c-0.2,0.5-0.3,1.1-0.3,1.7c0,0.6,0.1,1.2,0.3,1.7c0.2,0.5,0.5,1,0.8,1.4c0.4,0.4,0.8,0.7,1.3,1
		c0.5,0.2,1.1,0.3,1.7,0.3c0.6,0,1.2-0.1,1.7-0.3c0.5-0.2,1-0.5,1.3-1c0.4-0.4,0.6-0.9,0.8-1.4C28,108.2,28.1,107.6,28.1,107z"/>
	<path fill="#FFFFFF" d="M44.5,107c0,0.9-0.1,1.6-0.4,2.4c-0.3,0.7-0.7,1.3-1.2,1.9c-0.5,0.5-1.1,0.9-1.9,1.2
		c-0.7,0.3-1.5,0.4-2.4,0.4s-1.6-0.1-2.4-0.4c-0.7-0.3-1.3-0.7-1.9-1.2c-0.5-0.5-0.9-1.1-1.2-1.9c-0.3-0.7-0.4-1.5-0.4-2.4
		c0-0.9,0.1-1.7,0.4-2.4c0.3-0.7,0.7-1.3,1.2-1.8c0.5-0.5,1.1-0.9,1.9-1.2c0.7-0.3,1.5-0.4,2.4-0.4s1.6,0.1,2.4,0.4
		c0.7,0.3,1.3,0.7,1.9,1.2c0.5,0.5,0.9,1.1,1.2,1.8C44.4,105.3,44.5,106.1,44.5,107z M42.8,107c0-0.6-0.1-1.2-0.3-1.7
		c-0.2-0.5-0.5-1-0.8-1.4c-0.4-0.4-0.8-0.7-1.3-1c-0.5-0.2-1.1-0.4-1.8-0.4c-0.6,0-1.2,0.1-1.7,0.4c-0.5,0.2-1,0.6-1.3,1
		c-0.4,0.4-0.6,0.9-0.8,1.4c-0.2,0.5-0.3,1.1-0.3,1.7c0,0.6,0.1,1.2,0.3,1.7c0.2,0.5,0.5,1,0.8,1.4c0.4,0.4,0.8,0.7,1.3,1
		c0.5,0.2,1.1,0.3,1.7,0.3c0.6,0,1.2-0.1,1.7-0.3c0.5-0.2,1-0.5,1.3-1c0.4-0.4,0.6-0.9,0.8-1.4C42.7,108.2,42.8,107.6,42.8,107z"/>
	<path fill="#FFFFFF" d="M53.6,103.5c-0.2-0.3-0.5-0.6-0.9-0.7c-0.4-0.2-0.8-0.3-1.3-0.3c-0.3,0-0.5,0-0.8,0.1
		c-0.3,0.1-0.5,0.2-0.7,0.3c-0.2,0.2-0.4,0.3-0.5,0.6c-0.1,0.2-0.2,0.5-0.2,0.8c0,0.3,0.1,0.6,0.2,0.8c0.1,0.2,0.3,0.4,0.5,0.5
		c0.2,0.1,0.4,0.3,0.7,0.4c0.3,0.1,0.6,0.2,0.9,0.3c0.4,0.1,0.8,0.2,1.1,0.4c0.4,0.1,0.7,0.3,1.1,0.6c0.3,0.2,0.6,0.5,0.8,0.9
		c0.2,0.4,0.3,0.8,0.3,1.4c0,0.6-0.1,1.1-0.3,1.5c-0.2,0.4-0.5,0.8-0.9,1.1c-0.4,0.3-0.8,0.5-1.2,0.6c-0.5,0.1-0.9,0.2-1.4,0.2
		c-0.7,0-1.4-0.1-2-0.4c-0.7-0.3-1.2-0.7-1.6-1.2l1.2-1c0.3,0.4,0.6,0.7,1.1,0.9c0.4,0.2,0.9,0.4,1.4,0.4c0.3,0,0.5,0,0.8-0.1
		c0.3-0.1,0.5-0.2,0.7-0.3c0.2-0.2,0.4-0.4,0.5-0.6c0.1-0.2,0.2-0.5,0.2-0.9c0-0.3-0.1-0.6-0.2-0.8c-0.1-0.2-0.3-0.4-0.6-0.6
		c-0.2-0.2-0.5-0.3-0.8-0.4c-0.3-0.1-0.7-0.2-1-0.3c-0.4-0.1-0.7-0.2-1.1-0.4c-0.3-0.2-0.7-0.3-0.9-0.6c-0.3-0.2-0.5-0.5-0.7-0.9
		c-0.2-0.3-0.3-0.8-0.3-1.3c0-0.6,0.1-1,0.3-1.4c0.2-0.4,0.5-0.7,0.9-1c0.4-0.3,0.8-0.5,1.2-0.6c0.5-0.1,0.9-0.2,1.4-0.2
		c0.6,0,1.3,0.1,1.8,0.3c0.6,0.2,1,0.5,1.4,0.9L53.6,103.5z"/>
	<path fill="#FFFFFF" d="M59.9,111.2h5.8v1.4h-7.4v-11.1h7.1v1.4h-5.6v3.3h5.3v1.3h-5.3V111.2z"/>
	<path fill="#FFFFFF" d="M74.4,101.4h3.4c0.6,0,1.1,0.1,1.6,0.2c0.5,0.1,0.9,0.3,1.3,0.6c0.3,0.3,0.6,0.6,0.8,1
		c0.2,0.4,0.3,0.9,0.3,1.4c0,0.6-0.1,1-0.3,1.4c-0.2,0.4-0.5,0.7-0.8,1c-0.4,0.3-0.8,0.4-1.3,0.6c-0.5,0.1-1,0.2-1.6,0.2H76v4.9
		h-1.6V101.4z M76,106.3h1.7c0.4,0,0.7,0,1-0.1c0.3-0.1,0.6-0.2,0.8-0.3c0.2-0.1,0.4-0.3,0.5-0.6c0.1-0.2,0.2-0.5,0.2-0.8
		c0-0.3-0.1-0.6-0.2-0.8c-0.1-0.2-0.3-0.4-0.5-0.6c-0.2-0.1-0.5-0.2-0.8-0.3c-0.3-0.1-0.7-0.1-1-0.1H76V106.3z"/>
	<path fill="#FFFFFF" d="M96.4,107c0,0.9-0.1,1.6-0.4,2.4c-0.3,0.7-0.7,1.3-1.2,1.9c-0.5,0.5-1.1,0.9-1.9,1.2
		c-0.7,0.3-1.5,0.4-2.4,0.4c-0.8,0-1.6-0.1-2.4-0.4c-0.7-0.3-1.3-0.7-1.9-1.2c-0.5-0.5-0.9-1.1-1.2-1.9c-0.3-0.7-0.4-1.5-0.4-2.4
		c0-0.9,0.1-1.7,0.4-2.4c0.3-0.7,0.7-1.3,1.2-1.8c0.5-0.5,1.1-0.9,1.9-1.2c0.7-0.3,1.5-0.4,2.4-0.4c0.8,0,1.6,0.1,2.4,0.4
		c0.7,0.3,1.3,0.7,1.9,1.2c0.5,0.5,0.9,1.1,1.2,1.8C96.3,105.3,96.4,106.1,96.4,107z M94.7,107c0-0.6-0.1-1.2-0.3-1.7
		c-0.2-0.5-0.5-1-0.8-1.4c-0.4-0.4-0.8-0.7-1.3-1c-0.5-0.2-1.1-0.4-1.8-0.4c-0.6,0-1.2,0.1-1.7,0.4c-0.5,0.2-1,0.6-1.3,1
		c-0.4,0.4-0.6,0.9-0.8,1.4c-0.2,0.5-0.3,1.1-0.3,1.7c0,0.6,0.1,1.2,0.3,1.7c0.2,0.5,0.5,1,0.8,1.4c0.4,0.4,0.8,0.7,1.3,1
		c0.5,0.2,1.1,0.3,1.7,0.3c0.6,0,1.2-0.1,1.7-0.3c0.5-0.2,1-0.5,1.3-1c0.4-0.4,0.6-0.9,0.8-1.4C94.6,108.2,94.7,107.6,94.7,107z"/>
	<path fill="#FFFFFF" d="M107.7,110.3L107.7,110.3l0-8.9h1.6v11.1h-2l-5.9-9.1h0v9.1h-1.6v-11.1h2L107.7,110.3z"/>
	<path fill="#FFFFFF" d="M113.4,101.4h3.8c0.7,0,1.4,0.1,2.1,0.3c0.7,0.2,1.4,0.5,1.9,1c0.6,0.5,1,1,1.4,1.7
		c0.4,0.7,0.5,1.5,0.5,2.5c0,1-0.2,1.8-0.5,2.5c-0.4,0.7-0.8,1.3-1.4,1.7c-0.6,0.5-1.2,0.8-1.9,1c-0.7,0.2-1.4,0.3-2.1,0.3h-3.8
		V101.4z M115,111.2h1.9c0.7,0,1.3-0.1,1.9-0.3c0.6-0.2,1.1-0.5,1.5-0.8c0.4-0.4,0.7-0.8,1-1.3c0.2-0.5,0.3-1.1,0.3-1.8
		c0-0.7-0.1-1.3-0.3-1.8c-0.2-0.5-0.6-1-1-1.3c-0.4-0.4-0.9-0.6-1.5-0.8c-0.6-0.2-1.2-0.3-1.9-0.3H115V111.2z"/>
</g>
<g>
	<path fill="#FFFFFF" d="M14.8,118.3c-0.5-0.5-0.9-0.6-1.3-0.6c-1.3,0-2.1,1-2.1,2.2c0,1.3,0.9,2.3,2.1,2.3c0.5,0,1-0.2,1.4-0.8
		l0.9,0.7c-0.6,0.8-1.4,1.1-2.3,1.1c-1.9,0-3.3-1.3-3.3-3.3c0-2,1.4-3.3,3.3-3.3c0.8,0,1.6,0.3,2.2,1L14.8,118.3z"/>
	<path fill="#FFFFFF" d="M20.2,116.7c2,0,3.3,1.3,3.3,3.3c0,2-1.4,3.3-3.3,3.3c-1.9,0-3.3-1.3-3.3-3.3
		C16.9,118,18.3,116.7,20.2,116.7z M20.2,122.2c1.3,0,2.2-1,2.2-2.3c0-1.2-0.9-2.2-2.2-2.2c-1.3,0-2.1,1-2.1,2.2
		C18,121.2,18.9,122.2,20.2,122.2z"/>
	<path fill="#FFFFFF" d="M30.2,120.8c0,1.5-1.1,2.5-2.5,2.5s-2.5-0.9-2.5-2.5v-4h1.1v3.9c0,0.6,0.3,1.4,1.4,1.4s1.4-0.8,1.4-1.4
		v-3.9h1.1V120.8z"/>
	<path fill="#FFFFFF" d="M32.2,116.8h1.5l3,4.6h0v-4.6h1.1v6.3h-1.4l-3.1-4.8h0v4.8h-1.1V116.8z"/>
	<path fill="#FFFFFF" d="M41.1,117.8h-1.9v-1h4.9v1h-1.9v5.2h-1.1V117.8z"/>
	<path fill="#FFFFFF" d="M45.6,116.8h2.2c1.2,0,2.3,0.4,2.3,1.8c0,0.9-0.5,1.6-1.4,1.7l1.7,2.8h-1.3l-1.4-2.6h-0.8v2.6h-1.1V116.8z
		 M47.5,119.5c0.6,0,1.4-0.1,1.4-0.9c0-0.7-0.7-0.8-1.3-0.8h-1v1.7H47.5z"/>
	<path fill="#FFFFFF" d="M52.9,120.4l-2.3-3.6H52l1.5,2.5l1.6-2.5h1.3l-2.3,3.6v2.7h-1.1V120.4z"/>
	<path fill="#FFFFFF" d="M60.8,116.8H63c1.2,0,2.3,0.4,2.3,1.8c0,1.6-1.2,1.9-2.5,1.9H62v2.6h-1.1V116.8z M62.6,119.5
		c0.6,0,1.5,0,1.5-0.9c0-0.8-0.7-0.9-1.3-0.9H62v1.8H62.6z"/>
	<path fill="#FFFFFF" d="M66.9,116.8H69c1.2,0,2.3,0.4,2.3,1.8c0,0.9-0.5,1.6-1.4,1.7l1.7,2.8h-1.3l-1.4-2.6H68v2.6h-1.1V116.8z
		 M68.8,119.5c0.6,0,1.4-0.1,1.4-0.9c0-0.7-0.7-0.8-1.3-0.8h-1v1.7H68.8z"/>
	<path fill="#FFFFFF" d="M76,116.7c2,0,3.3,1.3,3.3,3.3c0,2-1.4,3.3-3.3,3.3c-1.9,0-3.3-1.3-3.3-3.3C72.7,118,74.1,116.7,76,116.7z
		 M76,122.2c1.3,0,2.2-1,2.2-2.3c0-1.2-0.9-2.2-2.2-2.2c-1.3,0-2.1,1-2.1,2.2C73.9,121.2,74.7,122.2,76,122.2z"/>
	<path fill="#FFFFFF" d="M81,116.8h2.1c1.2,0,2.3,0.4,2.3,1.8c0,1.6-1.2,1.9-2.5,1.9h-0.8v2.6H81V116.8z M82.8,119.5
		c0.6,0,1.5,0,1.5-0.9c0-0.8-0.7-0.9-1.3-0.9h-0.8v1.8H82.8z"/>
	<path fill="#FFFFFF" d="M87.1,116.8h4.1v1h-3v1.5H91v1h-2.9v1.7h3.2v1h-4.3V116.8z"/>
	<path fill="#FFFFFF" d="M93.1,116.8h2.2c1.2,0,2.3,0.4,2.3,1.8c0,0.9-0.5,1.6-1.4,1.7l1.7,2.8h-1.3l-1.4-2.6h-0.8v2.6h-1.1V116.8z
		 M95.1,119.5c0.6,0,1.4-0.1,1.4-0.9c0-0.7-0.7-0.8-1.3-0.8h-1v1.7H95.1z"/>
	<path fill="#FFFFFF" d="M100.4,117.8h-1.9v-1h4.9v1h-1.9v5.2h-1.1V117.8z"/>
	<path fill="#FFFFFF" d="M104.8,116.8h1.1v6.3h-1.1V116.8z"/>
	<path fill="#FFFFFF" d="M107.9,116.8h4.1v1h-3v1.5h2.9v1H109v1.7h3.2v1h-4.3V116.8z"/>
	<path fill="#FFFFFF" d="M117,118.2c-0.2-0.3-0.7-0.5-1.1-0.5c-0.5,0-1,0.2-1,0.8c0,1.3,3,0.5,3,2.8c0,1.3-1.1,2-2.3,2
		c-0.8,0-1.5-0.2-2-0.8l0.8-0.8c0.3,0.4,0.7,0.7,1.2,0.7c0.5,0,1.1-0.3,1.1-0.9c0-1.4-3-0.6-3-2.8c0-1.3,1.1-1.9,2.3-1.9
		c0.7,0,1.3,0.2,1.8,0.6L117,118.2z"/>
</g>
</svg>
